Time (ms)	Temperature (°C)	Pressure (Pa)	Humidity (%)	CO2-I2C (ppm)	CO2-OUT2 (mV)	CO_bias (mV)	CO_analog_VOUT (mV)	CO_current (mA)	
3906	24.43	1009.98	44.12	487	1312	0	1338	0	
4321	24.43	1009.95	44.14	487	1312	0	1316	0	
4686	24.43	1009.97	44.15	487	1312	0	1303	0	
5050	24.42	1009.92	44.15	487	1312	0	1300	0	
5412	24.43	1009.92	44.14	487	1312	0	1306	0	
5811	24.43	1009.94	44.13	487	1370	0	1335	0	
6173	24.42	1009.92	44.09	488	1312	0	1303	0	
6536	24.41	1009.94	44.08	488	1312	0	1296	0	
6899	24.41	1009.97	44.09	488	1309	0	1300	0	
7265	24.41	1009.93	44.10	488	1309	0	1290	0	
7627	24.41	1009.98	44.11	488	1309	0	1290	0	
8031	24.40	1009.98	44.11	488	1309	0	1293	0	
8434	24.40	1009.99	44.11	488	1309	0	1290	0	
8839	24.39	1009.95	44.11	488	1309	0	1290	0	
9242	24.38	1009.93	44.10	488	1309	0	1293	0	
9646	24.37	1009.96	44.08	488	1309	0	1290	0	
10101	24.37	1010.00	44.09	488	1309	0	1283	0	
10508	24.35	1010.01	44.11	488	1309	0	1283	0	
10911	24.34	1009.97	44.13	488	1312	0	1290	0	
11315	24.34	1010.01	44.16	488	1309	0	1293	0	
11828	24.33	1010.01	44.18	488	1374	0	1325	0	
12231	24.32	1010.01	44.21	488	1312	0	1296	0	
12635	24.32	1010.03	44.23	488	1312	0	1290	0	
13038	24.31	1010.00	44.25	488	1309	0	1290	0	
13442	24.29	1010.00	44.27	488	1309	0	1290	0	
13892	24.29	1009.98	44.29	NAN	NAN	0	1290	0	
14502	24.28	1010.00	44.32	487	1309	0	1287	0	
14906	24.27	1009.99	44.34	487	1309	0	1283	0	
15309	24.27	1010.02	44.35	487	1309	0	1290	0	
15713	24.26	1010.01	44.37	487	1312	0	1290	0	
16116	24.25	1010.01	44.38	487	1309	0	1293	0	
16575	24.25	1010.01	44.40	487	1309	0	1290	0	
16999	24.23	1009.97	44.41	487	1309	0	1287	0	
17405	24.22	1009.99	44.43	487	1309	0	1287	0	
17906	24.19	1009.91	44.45	NAN	NAN	0	1290	0	
18515	24.19	1009.99	44.46	487	1309	0	1287	0	
18919	24.19	1010.02	44.48	487	1309	0	1283	0	
19323	24.18	1009.99	44.50	487	1309	0	1283	0	
19727	24.16	1009.98	44.52	487	1309	0	1283	0	
20130	24.16	1010.00	44.54	487	1309	0	1283	0	
20534	24.16	1010.01	44.56	487	1309	0	1287	0	
20938	24.14	1010.00	44.58	487	1309	0	1290	0	
21342	24.14	1010.00	44.59	487	1309	0	1290	0	
21840	24.13	1009.99	44.61	487	1380	0	1335	0	
22244	24.12	1009.98	44.62	486	1306	0	1287	0	
22648	24.11	1009.98	44.64	486	1306	0	1283	0	
23104	24.10	1009.98	44.65	486	1306	0	1283	0	
23511	24.09	1009.99	44.69	486	1306	0	1283	0	
23926	24.09	1010.01	44.70	NAN	NAN	0	1287	0	
24536	24.07	1009.97	44.74	486	1309	0	1290	0	
24940	24.07	1009.97	44.79	486	1306	0	1287	0	
25344	24.07	1009.97	44.79	486	1306	0	1283	0	
25747	24.06	1009.96	44.80	486	1306	0	1283	0	
26150	24.04	1009.96	44.81	486	1306	0	1280	0	
26558	24.03	1009.95	44.83	486	1306	0	1287	0	
26961	24.03	1009.94	44.85	486	1306	0	1287	0	
27365	24.02	1009.99	44.88	486	1306	0	1287	0	
27860	24.01	1009.98	44.88	486	1377	0	1329	0	
28265	24.00	1009.97	44.90	486	1306	0	1287	0	
28668	23.99	1009.99	44.91	486	1306	0	1283	0	
29072	23.98	1009.99	44.92	486	1309	0	1283	0	
29527	23.98	1009.97	44.94	486	1306	0	1287	0	
29946	23.97	1009.99	44.96	NAN	NAN	0	1287	0	
30557	23.96	1010.00	45.00	486	1306	0	1283	0	
30960	23.95	1009.97	45.02	486	1306	0	1287	0	
31367	23.94	1009.98	45.05	486	1306	0	1280	0	
31875	23.94	1009.98	45.08	486	1374	0	1332	0	
32293	23.93	1010.00	45.11	486	1306	0	1287	0	
32700	23.92	1009.97	45.13	486	1306	0	1287	0	
33103	23.91	1009.97	45.15	486	1306	0	1283	0	
33507	23.91	1009.95	45.17	486	1306	0	1283	0	
33960	23.90	1009.95	45.18	NAN	NAN	0	1287	0	
34570	23.89	1009.99	45.20	486	1306	0	1283	0	
34973	23.88	1009.97	45.21	486	1309	0	1283	0	
35377	23.87	1009.98	45.22	486	1306	0	1290	0	
35781	23.86	1009.97	45.23	486	1309	0	1290	0	
36240	23.86	1009.97	45.24	486	1306	0	1287	0	
36646	23.85	1009.97	45.25	486	1306	0	1277	0	
37051	23.84	1009.99	45.27	486	1309	0	1283	0	
37454	23.83	1009.97	45.28	486	1309	0	1287	0	
37974	23.81	1009.93	45.30	NAN	NAN	0	1287	0	
38584	23.81	1009.97	45.32	485	1306	0	1283	0	
38987	23.82	1010.01	45.35	485	1306	0	1283	0	
39391	23.81	1009.98	45.37	485	1306	0	1287	0	
39794	23.80	1009.97	45.40	485	1306	0	1287	0	
40199	23.78	1009.95	45.43	486	1306	0	1287	0	
40602	23.78	1009.94	45.44	486	1306	0	1283	0	
41009	23.76	1009.94	45.47	486	1306	0	1283	0	
41412	23.77	1009.96	45.49	486	1306	0	1290	0	
41909	23.75	1009.95	45.51	486	1374	0	1306	0	
42312	23.74	1009.94	45.54	484	1303	0	1290	0	
42768	23.74	1010.00	45.55	484	1303	0	1287	0	
43174	23.75	1010.04	45.57	484	1303	0	1316	0	
43578	23.73	1009.94	45.58	484	1303	0	1300	0	
43995	23.73	1010.02	45.60	NAN	NAN	0	1287	0	
44604	23.71	1009.96	45.62	484	1303	0	1280	0	
45007	23.70	1009.98	45.64	484	1303	0	1287	0	
45412	23.70	1009.96	45.66	484	1303	0	1287	0	
45922	23.69	1009.98	45.68	484	1370	0	1325	0	
46325	23.69	1009.96	45.70	484	1303	0	1283	0	
46730	23.68	1009.96	45.71	484	1306	0	1283	0	
47133	23.68	1009.99	45.72	484	1303	0	1287	0	
47554	23.67	1009.99	45.74	484	1303	0	1283	0	
48008	23.67	1009.97	45.75	NAN	NAN	0	1277	0	
48618	23.65	1009.94	45.79	485	1306	0	1283	0	
49021	23.65	1009.94	45.80	485	1306	0	1277	0	
49477	23.65	1009.93	45.82	485	1306	0	1283	0	
49994	23.64	1009.93	45.83	485	1306	0	1287	0	
50398	23.63	1009.92	45.86	485	1306	0	1248	0	
50804	23.64	1009.97	45.87	485	1306	0	1267	0	
51208	23.63	1009.95	45.89	485	1306	0	1274	0	
51612	23.63	1009.92	45.89	485	1306	0	1280	0	
52042	23.62	1009.91	45.89	485	1309	0	1280	0	
52446	23.62	1009.91	45.92	485	1306	0	1280	0	
52849	23.61	1009.91	45.93	485	1306	0	1287	0	
53254	23.61	1009.94	45.95	485	1309	0	1287	0	
53657	23.60	1009.91	45.96	485	1306	0	1290	0	
54077	23.60	1009.90	46.02	NAN	NAN	0	1287	0	
54673	23.58	1009.89	46.06	485	1306	0	1300	0	
55076	23.58	1009.93	46.08	485	1306	0	1296	0	
55480	23.58	1009.91	46.10	485	1306	0	1290	0	
56035	23.56	1009.90	46.13	NAN	NAN	0	1290	0	
56647	23.57	1009.89	46.17	485	1306	0	1293	0	
57051	23.56	1009.86	46.19	485	1306	0	1283	0	
57455	23.55	1009.88	46.22	485	1306	0	1283	0	
57963	23.54	1009.91	46.24	485	1377	0	1332	0	
58366	23.53	1009.84	46.26	485	1306	0	1287	0	
58770	23.53	1009.92	46.29	485	1306	0	1287	0	
59173	23.52	1009.88	46.30	485	1306	0	1293	0	
59577	23.52	1009.84	46.30	485	1309	0	1290	0	
60049	23.51	1009.87	46.30	NAN	NAN	0	1283	0	
60658	23.51	1009.86	46.30	485	1306	0	1283	0	
61065	23.50	1009.89	46.29	485	1306	0	1283	0	
61469	23.49	1009.89	46.28	485	1306	0	1283	0	
61976	23.49	1009.90	46.29	485	1374	0	1332	0	
62380	23.48	1009.90	46.30	485	1306	0	1287	0	
62836	23.48	1009.88	46.30	485	1306	0	1287	0	
63259	23.47	1009.93	46.31	485	1309	0	1283	0	
63666	23.47	1009.89	46.32	485	1306	0	1283	0	
64082	23.46	1009.94	46.34	485	1309	0	1283	0	
64487	23.46	1009.92	46.35	485	1306	0	1283	0	
64890	23.45	1009.92	46.38	485	1306	0	1290	0	
65294	23.45	1009.93	46.40	485	1306	0	1287	0	
65700	23.45	1009.94	46.41	485	1306	0	1283	0	
66118	23.44	1009.93	46.42	NAN	NAN	0	1287	0	
66713	23.43	1009.96	46.46	485	1306	0	1283	0	
67076	23.43	1009.92	46.47	485	1309	0	1287	0	
67438	23.43	1009.92	46.48	485	1306	0	1287	0	
67801	23.43	1009.94	46.49	485	1306	0	1287	0	
68163	23.43	1009.96	46.51	485	1306	0	1287	0	
68527	23.41	1009.92	46.52	485	1309	0	1287	0	
68941	23.41	1009.95	46.53	485	1306	0	1280	0	
69307	23.40	1009.93	46.55	485	1306	0	1283	0	
69669	23.40	1009.94	46.57	485	1306	0	1287	0	
70062	23.40	1009.95	46.58	485	1309	0	1283	0	
70465	23.40	1009.95	46.59	485	1309	0	1283	0	
70870	23.40	1009.95	46.60	485	1306	0	1283	0	
71273	23.40	1009.96	46.60	485	1306	0	1287	0	
71676	23.39	1009.90	46.61	485	1306	0	1287	0	
72089	23.38	1009.90	46.63	NAN	NAN	0	1283	0	
72699	23.38	1009.93	46.66	485	1306	0	1283	0	
73103	23.38	1009.94	46.68	485	1306	0	1283	0	
73506	23.37	1009.92	46.69	485	1306	0	1290	0	
73910	23.37	1009.92	46.70	485	1306	0	1287	0	
74313	23.36	1009.93	46.71	485	1309	0	1287	0	
74721	23.36	1009.92	46.72	485	1309	0	1287	0	
75176	23.36	1009.91	46.73	485	1306	0	1287	0	
75583	23.36	1009.92	46.74	485	1306	0	1274	0	
76103	23.26	1009.72	46.75	NAN	NAN	0	1277	0	
76712	23.35	1009.94	46.78	485	1306	0	1287	0	
77116	23.34	1009.92	46.79	485	1306	0	1283	0	
77519	23.34	1009.91	46.80	485	1306	0	1283	0	
78030	23.34	1009.96	46.81	485	1374	0	1325	0	
78437	23.33	1009.92	46.81	484	1303	0	1287	0	
78840	23.33	1009.93	46.83	484	1303	0	1283	0	
79245	23.33	1009.93	46.83	484	1306	0	1277	0	
79651	23.32	1009.93	46.83	484	1303	0	1277	0	
80116	23.31	1009.93	46.88	NAN	NAN	0	1283	0	
80727	23.31	1009.88	46.95	484	1303	0	1277	0	
81130	23.31	1009.92	46.97	484	1303	0	1287	0	
81533	23.29	1009.90	47.01	484	1306	0	1277	0	
82103	23.29	1009.90	47.05	484	1303	0	1287	0	
82509	23.30	1009.91	47.06	484	1306	0	1277	0	
82913	23.29	1009.94	47.09	484	1306	0	1283	0	
83316	23.28	1009.88	47.16	484	1303	0	1287	0	
83720	23.28	1009.93	47.21	484	1303	0	1280	0	
84151	23.27	1009.90	47.26	484	1303	0	1280	0	
84557	23.27	1009.90	47.28	484	1306	0	1280	0	
84961	23.26	1009.91	47.29	484	1303	0	1283	0	
85365	23.26	1009.89	47.29	484	1303	0	1283	0	
85769	23.26	1009.93	47.29	484	1303	0	1283	0	
86185	23.26	1009.89	47.30	NAN	NAN	0	1280	0	
86780	23.25	1009.88	47.32	484	1306	0	1277	0	
87144	23.25	1009.95	47.33	484	1303	0	1280	0	
87506	23.24	1009.92	47.33	484	1303	0	1277	0	
87869	23.24	1009.94	47.34	484	1306	0	1283	0	
88284	23.25	1009.93	47.34	484	1306	0	1280	0	
88649	23.24	1009.90	47.34	484	1303	0	1283	0	
89012	23.24	1009.90	47.34	484	1306	0	1277	0	
