Time (ms)	Temperature (°C)	Pressure (Pa)	Humidity (%)	CO2-I2C (ppm)	CO2-OUT2 (mV)	CO_bias (mV)	CO_analog_VOUT (mV)	CO_current (mA)	
40678	21.78	1011.08	52.49	451	1274	0	1100	0	
41040	21.79	1011.04	52.47	451	1270	0	1100	0	
41403	21.79	1011.05	52.44	451	1270	0	1100	0	
41765	21.80	1011.05	52.42	451	1270	0	1100	0	
42128	21.80	1011.07	52.39	451	1270	0	1100	0	
42552	21.80	1011.07	52.34	451	1345	0	1151	0	
42914	21.80	1011.02	52.31	451	1270	0	1100	0	
43277	21.80	1011.05	52.30	451	1270	0	1103	0	
43639	21.81	1011.07	52.31	451	1274	0	1100	0	
44005	21.80	1011.02	52.30	451	1270	0	1100	0	
44367	21.81	1011.05	52.29	451	1270	0	1100	0	
44772	21.82	1011.06	52.30	451	1270	0	1100	0	
45229	21.82	1011.06	52.33	451	1270	0	1100	0	
45647	21.82	1011.04	52.35	451	1274	0	1100	0	
46052	21.82	1011.04	52.37	451	1270	0	1100	0	
46561	21.82	1011.05	52.40	451	1345	0	1154	0	
46965	21.83	1011.06	52.46	452	1274	0	1100	0	
47369	21.83	1011.05	52.47	452	1270	0	1100	0	
47772	21.84	1011.04	52.47	452	1270	0	1100	0	
48176	21.84	1011.04	52.47	452	1270	0	1100	0	
48626	21.84	1011.07	52.46	NAN	NAN	0	1100	0	
49236	21.85	1011.08	52.45	452	1274	0	1100	0	
49640	21.85	1011.07	52.42	452	1270	0	1100	0	
50043	21.85	1011.06	52.41	452	1270	0	1100	0	
50447	21.85	1011.06	52.39	452	1270	0	1100	0	
50851	21.86	1011.05	52.39	452	1270	0	1100	0	
51255	21.86	1011.07	52.38	452	1270	0	1100	0	
51710	21.86	1011.04	52.38	452	1270	0	1100	0	
52116	21.86	1011.06	52.37	452	1270	0	1100	0	
52640	21.86	1011.01	52.37	NAN	NAN	0	1100	0	
53250	21.86	1011.06	52.36	452	1270	0	1100	0	
53656	21.87	1011.09	52.36	452	1270	0	1100	0	
54061	21.87	1011.07	52.36	452	1270	0	1100	0	
54567	21.88	1011.09	52.37	452	1354	0	1161	0	
54972	21.89	1011.10	52.39	452	1270	0	1100	0	
55375	21.89	1011.07	52.39	452	1270	0	1100	0	
55779	21.88	1011.10	52.42	452	1270	0	1100	0	
56182	21.90	1011.10	52.41	452	1270	0	1100	0	
56653	21.89	1011.09	52.41	NAN	NAN	0	1100	0	
57263	21.90	1011.12	52.39	452	1270	0	1096	0	
57667	21.90	1011.09	52.37	452	1270	0	1100	0	
58071	21.90	1011.09	52.36	452	1274	0	1100	0	
58640	21.90	1011.08	52.31	452	1270	0	1100	0	
59046	21.91	1011.08	52.29	452	1270	0	1100	0	
59450	21.90	1011.08	52.30	452	1270	0	1100	0	
59853	21.91	1011.12	52.38	452	1270	0	1100	0	
60257	21.92	1011.08	52.42	452	1270	0	1100	0	
60688	21.92	1011.08	52.44	452	1270	0	1100	0	
61091	21.92	1011.08	52.44	452	1274	0	1100	0	
